ph\com\sunlife\ingenium\domain\response\payload\MirClientAddressMuninicipalityCodeCluster.class
ph\com\sunlife\wms\ingenium\handler\PolicyInquiryResponseHandler.class
ph\com\sunlife\ingenium\domain\MirBiBnfyRelinsG.class
ph\com\sunlife\ingenium\domain\response\payload\MirDvPreviousAddressIndGroup.class
ph\com\sunlife\ingenium\domain\MirPolCliAsignDtG.class
ph\com\sunlife\ingenium\ws\domain\Response.class
ph\com\sunlife\ingenium\domain\reqst\client\inquiry\package-info.class
ph\com\sunlife\ingenium\domain\reqst\client\inquiry\TransType.class
ph\com\sunlife\ingenium\domain\MirRtCvgFeDurG.class
ph\com\sunlife\wms\ingenium\handler\ListRequirementsResponseHandler.class
ph\com\sunlife\ingenium\domain\reqst\client\inquiry\OLifE.class
ph\com\sunlife\ingenium\domain\response\payload\MirPreviousEmployerYearDurationGroup.class
ph\com\sunlife\ingenium\domain\MirOpiBrIdG.class
ph\com\sunlife\ingenium\domain\MirCdCvgParCdG.class
ph\com\sunlife\ingenium\domain\response\payload\MirClientIndividualSuffixNameGroup.class
ph\com\sunlife\ingenium\domain\response\payload\MirCrcHolderNameGroup.class
ph\com\sunlife\ingenium\domain\response\payload\MirDvClientPostalCodeGroup.class
ph\com\sunlife\ingenium\domain\MirDvAsignAddrCdG.class
ph\com\sunlife\ingenium\domain\response\payload\MirDvEmployerPostalCodeGroup.class
ph\com\sunlife\wms\ingenium\service\ClientService.class
ph\com\sunlife\ingenium\domain\MirDvOwnSubCdG.class
ph\com\sunlife\wms\ingenium\configuration\IngeniumPropertiesConfigurationKeys.class
ph\com\sunlife\ingenium\domain\response\payload\MirClientAlternateAddressCodeCluster.class
ph\com\sunlife\ingenium\ws\domain\ResultCode.class
ph\com\sunlife\ingenium\domain\response\payload\MirBankAccountNumberGroup.class
ph\com\sunlife\ingenium\domain\response\payload\MirBankIDGroup.class
ph\com\sunlife\wms\ingenium\service\PlanServiceImpl.class
ph\com\sunlife\ingenium\domain\MirPolCliInsrdCdG.class
ph\com\sunlife\ingenium\domain\MirDvTrstCliIdG.class
ph\com\sunlife\ingenium\ws\domain\Password.class
ph\com\sunlife\ingenium\domain\MirRtCvgFePermUpremAmtG.class
ph\com\sunlife\ingenium\domain\response\payload\MirDvPreviousEmployerrNameGroup.class
ph\com\sunlife\ingenium\domain\MirCdCvgMatXpryDtG.class
ph\com\sunlife\ingenium\domain\response\payload\MirBusAppInfo.class
ph\com\sunlife\ingenium\domain\response\payload\MirClientCountryCodeCluster.class
ph\com\sunlife\ingenium\domain\response\payload\MirDvClientResidenceTypeCodeGroup.class
ph\com\sunlife\ingenium\domain\response\payload\MirBankBrIDGroup.class
ph\com\sunlife\ingenium\ws\domain\TransactionResult.class
ph\com\sunlife\ingenium\domain\response\payload\MirBankNameGroup.class
ph\com\sunlife\ingenium\domain\response\payload\MirClientIndividualGivenNameGroup.class
ph\com\sunlife\ingenium\domain\response\payload\MirCrcBankIdGroup.class
ph\com\sunlife\ingenium\ws\domain\BasicCredentials.class
ph\com\sunlife\ingenium\domain\response\payload\MirEntryGivenNameGroup.class
ph\com\sunlife\ingenium\domain\MirBiSeqNumG.class
ph\com\sunlife\ingenium\domain\response\payload\MirClientResidenceNumberCluster.class
ph\com\sunlife\ingenium\ws\domain\PolicyData.class
ph\com\sunlife\ingenium\domain\reqst\policy\inquiry\UserPswd.class
ph\com\sunlife\ingenium\domain\response\payload\MirDvEmployerAddressEffectivityDateGroup.class
ph\com\sunlife\ingenium\domain\response\payload\MirDvEntryGivenNameGroup.class
ph\com\sunlife\ingenium\domain\response\payload\MirClientOtherLastNameGroup.class
ph\com\sunlife\ingenium\domain\MirOpiAgtIdG.class
ph\com\sunlife\ingenium\ws\domain\ListRequirementsContainer.class
ph\com\sunlife\ingenium\domain\MirDvAnutntSubCdG.class
ph\com\sunlife\ingenium\domain\MirRtCvgFePremAmtG.class
ph\com\sunlife\ingenium\domain\MirDvAsignCliNmG.class
ph\com\sunlife\ingenium\domain\response\payload\MirClientAddressEffectivityDateGroup.class
ph\com\sunlife\ingenium\TXLifeServiceFactory.class
ph\com\sunlife\wms\ingenium\archive\RequestXMLArchiver.class
ph\com\sunlife\ingenium\domain\MirRequirementIDGroup.class
ph\com\sunlife\ingenium\domain\MirCliAddrTypCdG.class
ph\com\sunlife\ingenium\domain\response\payload\MirClientResidenceTypeCodeCluster.class
ph\com\sunlife\ingenium\domain\reqst\client\inquiry\ObjectFactory.class
ph\com\sunlife\ingenium\domain\response\payload\MirClientAddressLine1TextGroup.class
ph\com\sunlife\ingenium\domain\response\payload\MirClientEmployerLocationCodeGroup.class
ph\com\sunlife\ingenium\domain\response\payload\MirDvClientAddressContactTextGroup.class
ph\com\sunlife\ingenium\domain\MirAgentIDGroup.class
ph\com\sunlife\ingenium\domain\MirCpreqTstDtG.class
ph\com\sunlife\ingenium\domain\MirDvTrstCliNmG.class
ph\com\sunlife\ingenium\ws\domain\RequirementsListTransactionResponse.class
ph\com\sunlife\wms\ingenium\ws\client\IngeniumRequestBuilder.class
ph\com\sunlife\ingenium\domain\MirCdCvgMpremAmtG.class
ph\com\sunlife\ingenium\domain\response\payload\MirUserMessageSeverityGroup.class
ph\com\sunlife\ingenium\domain\response\payload\MirDvClientIndividualEffectivityDateGroup.class
ph\com\sunlife\ingenium\domain\MirBiBnfyTypG.class
ph\com\sunlife\ingenium\ws\domain\ClientInquiryResponse.class
ph\com\sunlife\wms\ingenium\domain\ConsolidatedInformation.class
ph\com\sunlife\ingenium\domain\reqst\policy\inquiry\PolicyData.class
ph\com\sunlife\ingenium\domain\MirCdCvgIssEffDtG.class
ph\com\sunlife\ingenium\domain\response\payload\MirDvClientUpdateddByLn1Group.class
ph\com\sunlife\wms\ingenium\domain\Requirement.class
ph\com\sunlife\wms\ingenium\archive\XMLArchiver.class
ph\com\sunlife\ingenium\domain\reqst\policy\inquiry\OLifE.class
ph\com\sunlife\ingenium\domain\response\payload\MirClientAddressYearDurationCluster.class
ph\com\sunlife\ingenium\domain\MirRtCvgMeReasnCdG.class
ph\com\sunlife\wms\ingenium\configuration\IngeniumPropertiesConfigurationReader.class
ph\com\sunlife\ingenium\domain\MirUserMsgTxtG.class
ph\com\sunlife\ingenium\domain\response\payload\MirClientAddressLine2TextGroup.class
ph\com\sunlife\ingenium\domain\MirDvAnutntAddrCdG.class
ph\com\sunlife\ingenium\IngeniumWebServiceClient.class
ph\com\sunlife\ingenium\ws\domain\RequirementData.class
ph\com\sunlife\ingenium\domain\response\payload\MirClientCityNameTextCluster.class
ph\com\sunlife\ingenium\domain\response\payload\MirClientCrcNumGroup.class
ph\com\sunlife\ingenium\domain\MirRtCvgFeReasnCdG.class
ph\com\sunlife\wms\ingenium\domain\Client.class
ph\com\sunlife\ingenium\domain\response\payload\MirCrcExpiryMoGroup.class
ph\com\sunlife\ingenium\ws\domain\Credentials.class
ph\com\sunlife\ingenium\domain\response\payload\MirClientAddressStatusCodeCluster.class
ph\com\sunlife\ingenium\domain\response\payload\MirDvClientAddressUpdatedByLineGroup.class
ph\com\sunlife\ingenium\domain\MirBiBnfyNmeG.class
ph\com\sunlife\ingenium\domain\MirCdPlanIdG.class
ph\com\sunlife\ingenium\domain\MirCommonFields.class
ph\com\sunlife\ingenium\domain\response\payload\MirDvClientAddressAdditionalTextGroup.class
ph\com\sunlife\ingenium\domain\MirUserMsgSevrtyG.class
ph\com\sunlife\ingenium\domain\reqst\client\inquiry\UserPswd.class
ph\com\sunlife\ingenium\domain\response\payload\MirClientAddressAdditionalTextGroup.class
ph\com\sunlife\ingenium\domain\response\payload\MirClientAddressLine3TextGroup.class
ph\com\sunlife\wms\ingenium\ws\client\PolicyInquiryRequestBuilder.class
ph\com\sunlife\ingenium\domain\MirCpreqFolwupNumG.class
ph\com\sunlife\ingenium\ws\domain\converter\SuccessResultCodeAttribute.class
ph\com\sunlife\ingenium\domain\response\payload\MirClientPostalCodeCluster.class
ph\com\sunlife\ingenium\domain\MirPolicyID.class
ph\com\sunlife\ingenium\ws\domain\ClientInquiryData.class
ph\com\sunlife\ingenium\ws\domain\ResultInformation.class
ph\com\sunlife\wms\ingenium\service\PolicyService.class
ph\com\sunlife\ingenium\domain\request\ClientData.class
ph\com\sunlife\ingenium\domain\MirDvAgtCliNmG.class
ph\com\sunlife\ingenium\domain\response\payload\MirCrcIdGroup.class
ph\com\sunlife\ingenium\domain\MirDvAsignCliIdG.class
ph\com\sunlife\ingenium\domain\response\payload\MirClientCompanyContactNameGroup.class
ph\com\sunlife\ingenium\domain\MirClientBirthDateGroup.class
ph\com\sunlife\ingenium\domain\MirOpiDvAgtCliNmG.class
ph\com\sunlife\ingenium\domain\response\payload\MirDvClientIndvMiddlenameGroup.class
ph\com\sunlife\ingenium\domain\response\payload\MirBankInformation.class
ph\com\sunlife\ingenium\domain\response\payload\MirDvEmployerClientCompanyNameGroup.class
ph\com\sunlife\wms\ingenium\ws\client\InquiryConsolidatedInformationRequestBuilder.class
ph\com\sunlife\ingenium\domain\response\payload\MirClientCompanyNameGroup.class
ph\com\sunlife\ingenium\domain\response\payload\MirDvClientAddressYearDurationGroup.class
ph\com\sunlife\wms\ingenium\archive\ResponseXMLArchiver.class
ph\com\sunlife\ingenium\domain\request\ConsolidatedInformationData.class
ph\com\sunlife\ingenium\domain\response\payload\MirCrcCvv2NumberGroup.class
ph\com\sunlife\ingenium\domain\response\payload\MirDvEmployerAddress2TextGroup.class
ph\com\sunlife\ingenium\domain\response\payload\MirDvClientAddressLine3TextGroup.class
ph\com\sunlife\ingenium\domain\response\payload\MirAddressStatusChangeDateGroup.class
ph\com\sunlife\ingenium\domain\response\payload\MirDvClientBankAccountIndGroup.class
ph\com\sunlife\ingenium\domain\response\payload\MirEmployerInformation.class
ph\com\sunlife\ingenium\domain\MirRtCvgMePremAmtG.class
ph\com\sunlife\ingenium\domain\response\payload\MirUserMessageTextGroup.class
ph\com\sunlife\ingenium\ws\domain\PlainPassword.class
ph\com\sunlife\ingenium\domain\MirUserIdG.class
ph\com\sunlife\ingenium\domain\response\payload\MirAddressInformation.class
ph\com\sunlife\ingenium\domain\response\payload\MirClientIndividualSurnameGroup.class
ph\com\sunlife\ingenium\domain\MirCompletenessIndGroup.class
ph\com\sunlife\ingenium\ws\domain\ReturnCodes.class
ph\com\sunlife\ingenium\domain\reqst\policy\inquiry\TXLife.class
ph\com\sunlife\ingenium\domain\reqst\client\inquiry\MirCliInfo.class
ph\com\sunlife\ingenium\domain\reqst\policy\inquiry\MirPolId.class
ph\com\sunlife\ingenium\domain\MirDvAsignSubCdG.class
ph\com\sunlife\ingenium\domain\response\payload\MirDvEmployerAddress1TextGroup.class
ph\com\sunlife\ingenium\domain\response\payload\MirDvClientIndividualSuffixNameGroup.class
ph\com\sunlife\ingenium\domain\response\payload\MirDvClientResidenceNumberGroup.class
ph\com\sunlife\ingenium\ws\domain\Request.class
ph\com\sunlife\ingenium\TXLifeService.class
ph\com\sunlife\ingenium\domain\MirOpiAgtStatCdG.class
ph\com\sunlife\ingenium\domain\response\payload\MirBankAccountHolderNameGroup.class
ph\com\sunlife\ingenium\domain\response\payload\MirClientEmployeeYearDurationGroup.class
ph\com\sunlife\ingenium\domain\response\payload\MirCrcTypeCodeGroup.class
ph\com\sunlife\ingenium\domain\response\payload\MirDvClientAlternateAddressCodeGroup.class
ph\com\sunlife\ingenium\ws\domain\PolicyInquiryTransactionResponse.class
ph\com\sunlife\ingenium\domain\MirCpreqDesgntIdG.class
ph\com\sunlife\ingenium\domain\MirBiBnfyBrthdtG.class
ph\com\sunlife\ingenium\domain\MirCdCvgSmkrCdG.class
ph\com\sunlife\ingenium\domain\response\payload\MirDvClientCountryCodeGroup.class
ph\com\sunlife\ingenium\domain\MirCpreqEffDtG.class
ph\com\sunlife\ingenium\domain\MirDvAnutntCliIdG.class
ph\com\sunlife\ingenium\domain\response\payload\MirDvClientAddressEffectivityDateGroup.class
ph\com\sunlife\ingenium\ws\domain\ClientInquiryContainer.class
ph\com\sunlife\wms\ingenium\ws\client\ListRequirementsRequestBuilder.class
ph\com\sunlife\wms\ingenium\service\PolicyServiceImpl.class
ph\com\sunlife\ingenium\domain\MirCdCvgSexCdG.class
ph\com\sunlife\ingenium\domain\MirRtCvgMeFctG.class
ph\com\sunlife\ingenium\domain\MirDvOwnCliNmG.class
ph\com\sunlife\ingenium\domain\MirCpreqValidDtG.class
ph\com\sunlife\ingenium\ws\domain\ResultInformationCode.class
ph\com\sunlife\wms\ingenium\handler\ClientInquiryResponseHandler.class
ph\com\sunlife\ingenium\domain\MirCdCvgAcctTypCdG.class
ph\com\sunlife\ingenium\domain\reqst\policy\inquiry\package-info.class
ph\com\sunlife\ingenium\ws\domain\ClientInquiryTransactionResponse.class
ph\com\sunlife\ingenium\ws\domain\ClientData.class
ph\com\sunlife\ingenium\domain\MirDvTrstAddrCdG.class
ph\com\sunlife\ingenium\domain\MirBiBnfyPrcedsG.class
ph\com\sunlife\ingenium\domain\MirCdCvgFaceAmtG.class
ph\com\sunlife\ingenium\domain\response\payload\MirBankAccountTypeCodeGroup.class
ph\com\sunlife\ingenium\domain\response\payload\MirDvClientAddressLine1TextGroup.class
ph\com\sunlife\ingenium\domain\MirCdCvgRtAgeG.class
ph\com\sunlife\ingenium\domain\response\payload\MirDvEmployerCountryCodeGroup.class
ph\com\sunlife\ingenium\domain\response\payload\MirPreviousNameInformation.class
ph\com\sunlife\ingenium\ws\domain\InquiryConsolidatedInformationResponse.class
ph\com\sunlife\ingenium\domain\reqst\client\inquiry\UserAuthRequest.class
ph\com\sunlife\ingenium\domain\MirCdCvgCstatCdG.class
ph\com\sunlife\ingenium\domain\reqst\client\inquiry\TXLifeRequest.class
ph\com\sunlife\ingenium\domain\request\ClientInformation.class
ph\com\sunlife\ingenium\domain\response\payload\MirEntrySurnameGroup.class
ph\com\sunlife\wms\ingenium\service\ClientServiceImpl.class
ph\com\sunlife\ingenium\ws\domain\InquiryConsolidatedInformationTransactionResponse.class
ph\com\sunlife\ingenium\ws\domain\UserPassword.class
ph\com\sunlife\ingenium\domain\response\payload\MirPreviousEmployerInformation.class
ph\com\sunlife\ingenium\ws\domain\PolicyInquiryResponse.class
ph\com\sunlife\ingenium\domain\MirCpreqStatCdG.class
ph\com\sunlife\ingenium\domain\response\payload\MirCliCompCntctDsgnGroup.class
ph\com\sunlife\ingenium\domain\response\payload\MirClientOtherFirstNameGroup.class
ph\com\sunlife\ingenium\domain\response\payload\MirDvEntrySurnameGroup.class
ph\com\sunlife\ingenium\domain\response\payload\MirClientOtherMiddlenameGroup.class
ph\com\sunlife\ingenium\domain\MirListFields.class
ph\com\sunlife\ingenium\domain\response\TransactionMetadata.class
ph\com\sunlife\ingenium\domain\MirUserMessageGroup.class
ph\com\sunlife\ingenium\domain\MirCpreqTstRsltCdG.class
ph\com\sunlife\ingenium\domain\reqst\policy\inquiry\UserAuthRequest.class
ph\com\sunlife\ingenium\domain\reqst\client\inquiry\ClientData.class
ph\com\sunlife\ingenium\domain\response\payload\MirClientAddressCountryCodeCluster.class
ph\com\sunlife\ingenium\domain\reqst\policy\inquiry\ObjectFactory.class
ph\com\sunlife\ingenium\domain\response\payload\MirDvClientIndividualTitleTextGroup.class
ph\com\sunlife\ingenium\domain\response\payload\MirBankAccountIDGroup.class
ph\com\sunlife\ingenium\ws\domain\RequestResponse.class
ph\com\sunlife\wms\ingenium\domain\Policy.class
ph\com\sunlife\ingenium\domain\response\payload\MirDvClientAddressMuninicipalityCodeGroup.class
ph\com\sunlife\ingenium\domain\response\payload\MirDvClientAddressLastUpdatedLineGroup.class
ph\com\sunlife\ingenium\TXLifeServicePort.class
ph\com\sunlife\ingenium\domain\response\payload\MirBankAccountDateGroup.class
ph\com\sunlife\ingenium\ws\domain\InquiryConsolidatedInformationData.class
ph\com\sunlife\ingenium\domain\response\payload\MirDvEmployerCityCodeGroup.class
ph\com\sunlife\ingenium\domain\response\payload\MirDvClientCrntLocationCodeGroup.class
ph\com\sunlife\ingenium\domain\MirIndexNumG.class
ph\com\sunlife\ingenium\domain\response\payload\MirProcessInformation.class
ph\com\sunlife\ingenium\domain\response\payload\MirCrcExpiryYearGroup.class
ph\com\sunlife\ingenium\domain\response\payload\MirClientIndividualTitleTextGroup.class
ph\com\sunlife\ingenium\domain\MirBiBnfyPrcdsPctG.class
ph\com\sunlife\ingenium\domain\response\payload\MirDvClientCityNameTextGroup.class
ph\com\sunlife\ingenium\domain\response\payload\MirNameInformation.class
ph\com\sunlife\ingenium\domain\response\payload\MirClientIndividualMiddlenameGroup.class
ph\com\sunlife\ingenium\domain\MirDvIpartyCliNmG.class
ph\com\sunlife\ingenium\domain\response\payload\MirClientAddressContactTextCluster.class
ph\com\sunlife\ingenium\ws\domain\RequirementsListResponse.class
ph\com\sunlife\ingenium\domain\MirClientIDGroup.class
ph\com\sunlife\ingenium\domain\MirClientInformation.class
ph\com\sunlife\ingenium\domain\MirPolAgtShrPctG.class
ph\com\sunlife\ingenium\ws\domain\PolicyInquiryContainer.class
ph\com\sunlife\ingenium\domain\response\payload\MirDvClientUpdatedDateLn1Group.class
ph\com\sunlife\ingenium\domain\reqst\policy\inquiry\TXLifeRequest.class
ph\com\sunlife\ingenium\ws\domain\ResponseMetadata.class
ph\com\sunlife\ingenium\domain\MirDvAnutntCliNmG.class
ph\com\sunlife\ingenium\ws\domain\TransactionType.class
ph\com\sunlife\ingenium\domain\response\payload\MirDvClientAddressCountryCodeGroup.class
ph\com\sunlife\ingenium\ws\domain\InquiryConsolidatedInformationContainer.class
ph\com\sunlife\ingenium\domain\MirCliTaxIdG.class
ph\com\sunlife\ingenium\domain\response\payload\MirPreviousAddressInformation.class
ph\com\sunlife\ingenium\domain\request\PolicyData.class
ph\com\sunlife\ingenium\domain\MirReqirTypCdG.class
ph\com\sunlife\ingenium\domain\response\payload\MirClientAddressChangeDateCluster.class
ph\com\sunlife\wms\ingenium\handler\ResponseHandler.class
ph\com\sunlife\wms\ingenium\authentication\IngeniumPasswordBuilder.class
ph\com\sunlife\ingenium\domain\MirRtCvgFeUpremG.class
ph\com\sunlife\ingenium\domain\MirRtCvgRtAgeG.class
ph\com\sunlife\ingenium\domain\MirRtCvgMeRatCdG.class
ph\com\sunlife\ingenium\domain\MirCpreqSeqNumG.class
ph\com\sunlife\ingenium\domain\MirRtCvgNumG.class
ph\com\sunlife\ingenium\ws\domain\Transaction.class
ph\com\sunlife\ingenium\ws\domain\Container.class
ph\com\sunlife\ingenium\domain\MirDvIpartyCliIdG.class
ph\com\sunlife\ingenium\domain\response\payload\MirClientCrntLocationCodeCluster.class
ph\com\sunlife\wms\ingenium\domain\Coverage.class
ph\com\sunlife\wms\ingenium\ws\client\IngeniumReponseHandler.class
ph\com\sunlife\ingenium\domain\response\payload\MirClftInfo.class
ph\com\sunlife\ingenium\domain\MirRtCvgMeDurG.class
ph\com\sunlife\ingenium\domain\MirBiCvgNumG.class
ph\com\sunlife\ingenium\domain\MirOpiPolAgtShrPctG.class
ph\com\sunlife\ingenium\domain\response\payload\MirDvEmployerAddress3TextGroup.class
ph\com\sunlife\wms\ingenium\ws\client\ClientInquiryRequestBuilder.class
ph\com\sunlife\ingenium\ws\domain\converter\TransactionTypeAttribute.class
ph\com\sunlife\ingenium\domain\response\payload\MirDvClientAddressLine2TextGroup.class
ph\com\sunlife\ingenium\ws\domain\EncryptedPassword.class
ph\com\sunlife\ingenium\domain\MirBiBnfyDesgntCdG.class
ph\com\sunlife\ingenium\domain\reqst\policy\inquiry\TransType.class
ph\com\sunlife\ingenium\ws\domain\CompanyBasedCredentials.class
ph\com\sunlife\ingenium\domain\MirDvIpartyAddrCdG.class
ph\com\sunlife\ingenium\domain\response\payload\MirClientIndvEffectivityDateGroup.class
ph\com\sunlife\ingenium\domain\response\payload\MirCrcInformation.class
ph\com\sunlife\wms\ingenium\configuration\IngeniumClientConfigurator.class
ph\com\sunlife\wms\ingenium\service\PlanService.class
ph\com\sunlife\ingenium\domain\reqst\client\inquiry\TXLife.class
ph\com\sunlife\ingenium\domain\MirCpreqFolwupDtG.class
ph\com\sunlife\ingenium\domain\response\payload\MirBankAccountMicrIndGroup.class
