com\sunlife\ascp\configuration\data\TSQLOpenQuery.class
com\sunlife\ascp\configuration\data\DataSourceRadix.class
com\sunlife\ascp\configuration\data\JndiDataSource.class
com\sunlife\ascp\configuration\data\DatabaseConnectorDataSource.class
com\sunlife\ascp\configuration\data\DataRepository.class
com\sunlife\ascp\configuration\data\PropertiesDataSource.class
