C:\Users\IA51\Desktop\niumgein\niumgein\_project\ingenium-client\ascp-data-dbutils\src\main\java\com\sunlife\ascp\configuration\data\dbutils\DbUtilsRepository.java
C:\Users\IA51\Desktop\niumgein\niumgein\_project\ingenium-client\ascp-data-dbutils\src\main\java\com\sunlife\ascp\configuration\data\dbutils\OpenQueryRepository.java
C:\Users\IA51\Desktop\niumgein\niumgein\_project\ingenium-client\ascp-data-dbutils\src\main\java\com\sunlife\ascp\configuration\data\dbutils\handler\EntityBeanHandler.java
C:\Users\IA51\Desktop\niumgein\niumgein\_project\ingenium-client\ascp-data-dbutils\src\main\java\com\sunlife\ascp\configuration\data\dbutils\handler\EntityBeanListHandler.java
