C:\Users\IA51\Desktop\niumgein\niumgein\_project\ingenium-client\ascp-core\src\main\java\com\sunlife\ascp\codec\binary\HexaDecimal.java
C:\Users\IA51\Desktop\niumgein\niumgein\_project\ingenium-client\ascp-core\src\main\java\com\sunlife\ascp\connectivity\database\DatabaseConnectorBuilder.java
C:\Users\IA51\Desktop\niumgein\niumgein\_project\ingenium-client\ascp-core\src\main\java\com\sunlife\ascp\codec\EncoderException.java
C:\Users\IA51\Desktop\niumgein\niumgein\_project\ingenium-client\ascp-core\src\main\java\com\sunlife\ascp\utility\UUIDs.java
C:\Users\IA51\Desktop\niumgein\niumgein\_project\ingenium-client\ascp-core\src\main\java\com\sunlife\ascp\codec\Encoder.java
C:\Users\IA51\Desktop\niumgein\niumgein\_project\ingenium-client\ascp-core\src\main\java\com\sunlife\ascp\exception\InvalidConfigurationException.java
C:\Users\IA51\Desktop\niumgein\niumgein\_project\ingenium-client\ascp-core\src\main\java\com\sunlife\ascp\cryptography\CryptoHashAlgorithm.java
C:\Users\IA51\Desktop\niumgein\niumgein\_project\ingenium-client\ascp-core\src\main\java\com\sunlife\ascp\connectivity\database\DatabaseConnector.java
C:\Users\IA51\Desktop\niumgein\niumgein\_project\ingenium-client\ascp-core\src\main\java\com\sunlife\ascp\cryptography\CryptographicHash.java
C:\Users\IA51\Desktop\niumgein\niumgein\_project\ingenium-client\ascp-core\src\main\java\com\sunlife\ascp\cryptography\MD5Digest.java
C:\Users\IA51\Desktop\niumgein\niumgein\_project\ingenium-client\ascp-core\src\main\java\com\sunlife\ascp\configuration\Configuration.java
C:\Users\IA51\Desktop\niumgein\niumgein\_project\ingenium-client\ascp-core\src\main\java\com\sunlife\ascp\codec\StringEncoder.java
C:\Users\IA51\Desktop\niumgein\niumgein\_project\ingenium-client\ascp-core\src\main\java\com\sunlife\ascp\codec\BinaryEncoder.java
C:\Users\IA51\Desktop\niumgein\niumgein\_project\ingenium-client\ascp-core\src\main\java\com\sunlife\ascp\configuration\JNDIDataSourceConfiguration.java
C:\Users\IA51\Desktop\niumgein\niumgein\_project\ingenium-client\ascp-core\src\main\java\com\sunlife\ascp\connectivity\database\MsSqlServerConnector.java
C:\Users\IA51\Desktop\niumgein\niumgein\_project\ingenium-client\ascp-core\src\main\java\com\sunlife\ascp\connectivity\database\JdbcDataSource.java
C:\Users\IA51\Desktop\niumgein\niumgein\_project\ingenium-client\ascp-core\src\main\java\com\sunlife\ascp\exception\MissingConfigurationException.java
C:\Users\IA51\Desktop\niumgein\niumgein\_project\ingenium-client\ascp-core\src\main\java\com\sunlife\ascp\connectivity\Connector.java
C:\Users\IA51\Desktop\niumgein\niumgein\_project\ingenium-client\ascp-core\src\main\java\com\sunlife\ascp\entity\mapper\ColumnFieldMapper.java
C:\Users\IA51\Desktop\niumgein\niumgein\_project\ingenium-client\ascp-core\src\main\java\com\sunlife\ascp\codec\DecoderException.java
C:\Users\IA51\Desktop\niumgein\niumgein\_project\ingenium-client\ascp-core\src\main\java\com\sunlife\ascp\connectivity\database\JdbcUrl.java
C:\Users\IA51\Desktop\niumgein\niumgein\_project\ingenium-client\ascp-core\src\main\java\com\sunlife\ascp\connectivity\Protocol.java
C:\Users\IA51\Desktop\niumgein\niumgein\_project\ingenium-client\ascp-core\src\main\java\com\sunlife\ascp\codec\Decoder.java
C:\Users\IA51\Desktop\niumgein\niumgein\_project\ingenium-client\ascp-core\src\main\java\com\sunlife\ascp\cryptography\MessageDigest.java
C:\Users\IA51\Desktop\niumgein\niumgein\_project\ingenium-client\ascp-core\src\main\java\com\sunlife\ascp\cryptography\MD5Hash.java
C:\Users\IA51\Desktop\niumgein\niumgein\_project\ingenium-client\ascp-core\src\main\java\com\sunlife\ascp\connectivity\database\DataSourceClassName.java
C:\Users\IA51\Desktop\niumgein\niumgein\_project\ingenium-client\ascp-core\src\main\java\com\sunlife\ascp\configuration\BasicJNDIConfiguration.java
C:\Users\IA51\Desktop\niumgein\niumgein\_project\ingenium-client\ascp-core\src\main\java\com\sunlife\ascp\cryptography\CryptographicHashEngine.java
C:\Users\IA51\Desktop\niumgein\niumgein\_project\ingenium-client\ascp-core\src\main\java\com\sunlife\ascp\entity\mapper\ColumnField.java
C:\Users\IA51\Desktop\niumgein\niumgein\_project\ingenium-client\ascp-core\src\main\java\com\sunlife\ascp\codec\StringDecoder.java
C:\Users\IA51\Desktop\niumgein\niumgein\_project\ingenium-client\ascp-core\src\main\java\com\sunlife\ascp\configuration\PropertiesConfiguration.java
C:\Users\IA51\Desktop\niumgein\niumgein\_project\ingenium-client\ascp-core\src\main\java\com\sunlife\ascp\codec\BinaryDecoder.java
C:\Users\IA51\Desktop\niumgein\niumgein\_project\ingenium-client\ascp-core\src\main\java\com\sunlife\ascp\connectivity\database\JdbcDriver.java
C:\Users\IA51\Desktop\niumgein\niumgein\_project\ingenium-client\ascp-core\src\main\java\com\sunlife\ascp\configuration\JNDIConfiguration.java
